{
    "activeColor": "#f05f40",
    "activeTransition": "0.5s ease",
    "borderWidth": 1,
    "fieldBackgroundInvertColor": "#000000",
    "fieldHeight": 17,
    "fieldInvertColor": "#ffffff",
    "fieldWidth": 40,
    "higherFieldHeight": 25,
    "inputHeight": 15,
    "invalidColor": "#FF3534",
    "itemHorizontalSpacing": 3,
    "itemOutline": "#000000",
    "itemOutlineInvert": "#ffffff",
    "itemVerticalSpacing": 2,
    "labelColor": "#646464",
    "labelFontSize": "small",
    "modalHeaderBackgroundColor": "#333",
    "modalHeaderColor": "#ffffff",
    "navbarBackgroundColor": "#333",
    "validColor": "#38B254",

    "buttonPadding": "5px 15px",
    "buttonFontSize": "16px",
    "buttonMargin": "4px 2px",
    "buttonBackgroundColor": "#e7e7e7",
    "buttonColor": "#000000",

    "modalFooterBackgroundColor": "#333",
    "navbarColor": "white",
    "operatorWidth": 8,
    "temporaryItemOutline": "#d2d2d2"
}
