// Jest Snapshot v1, https://goo.gl/fbAQLP

exports[`Sheet initiative tests Should match previous Initiative snapshot 1`] = `
<div
  className="sc-VigVT fFoDPh sc-htpNat iNRPea"
  onClick={undefined}
>
  <div
    className="sc-bxivhb jJqmBv"
  >
    <i
      className="fa fa-eraser sc-bdVaJa eIcbMZ"
      onClick={[Function]}
      tabIndex="0"
    />
  </div>
  <div
    className="sc-bwzfXH csIkeN"
  >
    <span
      className="sc-gzVnrw fwEVoz"
    />
    <span
      className="sc-gzVnrw fwEVoz"
    >
      common:TOTAL
    </span>
    <span
      className="sc-htoDjs eXBQlL sc-gzVnrw dNZbtV"
    />
    <span
      className="sc-gzVnrw fwEVoz"
    >
      DEX_MOD
    </span>
    <span
      className="sc-htoDjs eXBQlL sc-gzVnrw dNZbtV"
    />
    <span
      className="sc-gzVnrw fwEVoz"
    >
      MISC_MOD
    </span>
  </div>
  <div
    className="sc-bwzfXH fQpBXR"
  >
    <div
      className="sc-ifAKCX bGqhPY"
    >
      INITIATIVE
    </div>
    <div
      className="sc-ifAKCX bCUjIC"
    >
      0
    </div>
    <span
      className="sc-htoDjs eXBQlL sc-gzVnrw dNZbtV"
    >
       = 
    </span>
    <input
      className="sc-EHOje dnzZAU"
      onBlur={[Function]}
      onChange={[Function]}
      onKeyDown={[Function]}
      size="1"
      type="number"
      value=""
    />
    <span
      className="sc-htoDjs eXBQlL sc-gzVnrw dNZbtV"
    >
      +
    </span>
    <input
      className="sc-EHOje dnzZAU"
      onBlur={[Function]}
      onChange={[Function]}
      onKeyDown={[Function]}
      size="1"
      type="number"
      value=""
    />
  </div>
</div>
`;
