// Jest Snapshot v1, https://goo.gl/fbAQLP

exports[`Sheet spells tests Should match previous Spells snapshot 1`] = `
<div
  className="sc-VigVT evxgaJ sc-htpNat iNRPea"
  onClick={undefined}
>
  <div
    className="sc-bxivhb jJqmBv"
  >
    <i
      className="fa fa-eraser sc-bdVaJa eIcbMZ"
      onClick={[Function]}
      tabIndex="0"
    />
  </div>
  <div
    className="sc-bwzfXH isTdHL"
    direction="column"
  >
    <div
      className="sc-bwzfXH bDYsyc"
      direction="column"
    >
      <div
        className="sc-ifAKCX eFJctz"
      >
        SPELLS
      </div>
      <div
        className="sc-bwzfXH csIkeN"
      >
        <span
          className="sc-gzVnrw fwEVoz"
        >
          LEVEL
        </span>
        <span
          className="sc-gzVnrw fwEVoz"
        >
          KNOWN
        </span>
        <span
          className="sc-gzVnrw fwEVoz"
        >
          PER_DAY
        </span>
        <span
          className="sc-gzVnrw fwEVoz"
        >
          BONUS
        </span>
        <span
          className="sc-gzVnrw fwEVoz"
        >
          SAVE_DC
        </span>
      </div>
    </div>
    <div
      className="sc-bwzfXH eAxOfO"
    >
      <div
        className="sc-ifAKCX bCUjIC"
      >
        
      </div>
      <input
        className="sc-EHOje dnzZAU"
        onBlur={[Function]}
        onChange={[Function]}
        onKeyDown={[Function]}
        size="1"
        type="number"
        value=""
      />
      <input
        className="sc-EHOje dnzZAU"
        onBlur={[Function]}
        onChange={[Function]}
        onKeyDown={[Function]}
        size="1"
        type="number"
        value=""
      />
      <input
        className="sc-EHOje dnzZAU"
        onBlur={[Function]}
        onChange={[Function]}
        onKeyDown={[Function]}
        size="1"
        type="number"
        value=""
      />
      <input
        className="sc-EHOje dnzZAU"
        onBlur={[Function]}
        onChange={[Function]}
        onKeyDown={[Function]}
        size="1"
        type="number"
        value=""
      />
    </div>
    <div
      className="sc-bwzfXH eAxOfO"
    >
      <div
        className="sc-ifAKCX bCUjIC"
      >
        1
      </div>
      <input
        className="sc-EHOje dnzZAU"
        onBlur={[Function]}
        onChange={[Function]}
        onKeyDown={[Function]}
        size="1"
        type="number"
        value=""
      />
      <input
        className="sc-EHOje dnzZAU"
        onBlur={[Function]}
        onChange={[Function]}
        onKeyDown={[Function]}
        size="1"
        type="number"
        value=""
      />
      <input
        className="sc-EHOje dnzZAU"
        onBlur={[Function]}
        onChange={[Function]}
        onKeyDown={[Function]}
        size="1"
        type="number"
        value=""
      />
      <input
        className="sc-EHOje dnzZAU"
        onBlur={[Function]}
        onChange={[Function]}
        onKeyDown={[Function]}
        size="1"
        type="number"
        value=""
      />
    </div>
    <div
      className="sc-bwzfXH eAxOfO"
    >
      <div
        className="sc-ifAKCX bCUjIC"
      >
        2
      </div>
      <input
        className="sc-EHOje dnzZAU"
        onBlur={[Function]}
        onChange={[Function]}
        onKeyDown={[Function]}
        size="1"
        type="number"
        value=""
      />
      <input
        className="sc-EHOje dnzZAU"
        onBlur={[Function]}
        onChange={[Function]}
        onKeyDown={[Function]}
        size="1"
        type="number"
        value=""
      />
      <input
        className="sc-EHOje dnzZAU"
        onBlur={[Function]}
        onChange={[Function]}
        onKeyDown={[Function]}
        size="1"
        type="number"
        value=""
      />
      <input
        className="sc-EHOje dnzZAU"
        onBlur={[Function]}
        onChange={[Function]}
        onKeyDown={[Function]}
        size="1"
        type="number"
        value=""
      />
    </div>
    <div
      className="sc-bwzfXH eAxOfO"
    >
      <div
        className="sc-ifAKCX bCUjIC"
      >
        3
      </div>
      <input
        className="sc-EHOje dnzZAU"
        onBlur={[Function]}
        onChange={[Function]}
        onKeyDown={[Function]}
        size="1"
        type="number"
        value=""
      />
      <input
        className="sc-EHOje dnzZAU"
        onBlur={[Function]}
        onChange={[Function]}
        onKeyDown={[Function]}
        size="1"
        type="number"
        value=""
      />
      <input
        className="sc-EHOje dnzZAU"
        onBlur={[Function]}
        onChange={[Function]}
        onKeyDown={[Function]}
        size="1"
        type="number"
        value=""
      />
      <input
        className="sc-EHOje dnzZAU"
        onBlur={[Function]}
        onChange={[Function]}
        onKeyDown={[Function]}
        size="1"
        type="number"
        value=""
      />
    </div>
    <div
      className="sc-bwzfXH eAxOfO"
    >
      <div
        className="sc-ifAKCX bCUjIC"
      >
        4
      </div>
      <input
        className="sc-EHOje dnzZAU"
        onBlur={[Function]}
        onChange={[Function]}
        onKeyDown={[Function]}
        size="1"
        type="number"
        value=""
      />
      <input
        className="sc-EHOje dnzZAU"
        onBlur={[Function]}
        onChange={[Function]}
        onKeyDown={[Function]}
        size="1"
        type="number"
        value=""
      />
      <input
        className="sc-EHOje dnzZAU"
        onBlur={[Function]}
        onChange={[Function]}
        onKeyDown={[Function]}
        size="1"
        type="number"
        value=""
      />
      <input
        className="sc-EHOje dnzZAU"
        onBlur={[Function]}
        onChange={[Function]}
        onKeyDown={[Function]}
        size="1"
        type="number"
        value=""
      />
    </div>
    <div
      className="sc-bwzfXH eAxOfO"
    >
      <div
        className="sc-ifAKCX bCUjIC"
      >
        5
      </div>
      <input
        className="sc-EHOje dnzZAU"
        onBlur={[Function]}
        onChange={[Function]}
        onKeyDown={[Function]}
        size="1"
        type="number"
        value=""
      />
      <input
        className="sc-EHOje dnzZAU"
        onBlur={[Function]}
        onChange={[Function]}
        onKeyDown={[Function]}
        size="1"
        type="number"
        value=""
      />
      <input
        className="sc-EHOje dnzZAU"
        onBlur={[Function]}
        onChange={[Function]}
        onKeyDown={[Function]}
        size="1"
        type="number"
        value=""
      />
      <input
        className="sc-EHOje dnzZAU"
        onBlur={[Function]}
        onChange={[Function]}
        onKeyDown={[Function]}
        size="1"
        type="number"
        value=""
      />
    </div>
    <div
      className="sc-bwzfXH eAxOfO"
    >
      <div
        className="sc-ifAKCX bCUjIC"
      >
        6
      </div>
      <input
        className="sc-EHOje dnzZAU"
        onBlur={[Function]}
        onChange={[Function]}
        onKeyDown={[Function]}
        size="1"
        type="number"
        value=""
      />
      <input
        className="sc-EHOje dnzZAU"
        onBlur={[Function]}
        onChange={[Function]}
        onKeyDown={[Function]}
        size="1"
        type="number"
        value=""
      />
      <input
        className="sc-EHOje dnzZAU"
        onBlur={[Function]}
        onChange={[Function]}
        onKeyDown={[Function]}
        size="1"
        type="number"
        value=""
      />
      <input
        className="sc-EHOje dnzZAU"
        onBlur={[Function]}
        onChange={[Function]}
        onKeyDown={[Function]}
        size="1"
        type="number"
        value=""
      />
    </div>
    <div
      className="sc-bwzfXH eAxOfO"
    >
      <div
        className="sc-ifAKCX bCUjIC"
      >
        7
      </div>
      <input
        className="sc-EHOje dnzZAU"
        onBlur={[Function]}
        onChange={[Function]}
        onKeyDown={[Function]}
        size="1"
        type="number"
        value=""
      />
      <input
        className="sc-EHOje dnzZAU"
        onBlur={[Function]}
        onChange={[Function]}
        onKeyDown={[Function]}
        size="1"
        type="number"
        value=""
      />
      <input
        className="sc-EHOje dnzZAU"
        onBlur={[Function]}
        onChange={[Function]}
        onKeyDown={[Function]}
        size="1"
        type="number"
        value=""
      />
      <input
        className="sc-EHOje dnzZAU"
        onBlur={[Function]}
        onChange={[Function]}
        onKeyDown={[Function]}
        size="1"
        type="number"
        value=""
      />
    </div>
    <div
      className="sc-bwzfXH eAxOfO"
    >
      <div
        className="sc-ifAKCX bCUjIC"
      >
        8
      </div>
      <input
        className="sc-EHOje dnzZAU"
        onBlur={[Function]}
        onChange={[Function]}
        onKeyDown={[Function]}
        size="1"
        type="number"
        value=""
      />
      <input
        className="sc-EHOje dnzZAU"
        onBlur={[Function]}
        onChange={[Function]}
        onKeyDown={[Function]}
        size="1"
        type="number"
        value=""
      />
      <input
        className="sc-EHOje dnzZAU"
        onBlur={[Function]}
        onChange={[Function]}
        onKeyDown={[Function]}
        size="1"
        type="number"
        value=""
      />
      <input
        className="sc-EHOje dnzZAU"
        onBlur={[Function]}
        onChange={[Function]}
        onKeyDown={[Function]}
        size="1"
        type="number"
        value=""
      />
    </div>
    <div
      className="sc-bwzfXH eAxOfO"
    >
      <div
        className="sc-ifAKCX bCUjIC"
      >
        9
      </div>
      <input
        className="sc-EHOje dnzZAU"
        onBlur={[Function]}
        onChange={[Function]}
        onKeyDown={[Function]}
        size="1"
        type="number"
        value=""
      />
      <input
        className="sc-EHOje dnzZAU"
        onBlur={[Function]}
        onChange={[Function]}
        onKeyDown={[Function]}
        size="1"
        type="number"
        value=""
      />
      <input
        className="sc-EHOje dnzZAU"
        onBlur={[Function]}
        onChange={[Function]}
        onKeyDown={[Function]}
        size="1"
        type="number"
        value=""
      />
      <input
        className="sc-EHOje dnzZAU"
        onBlur={[Function]}
        onChange={[Function]}
        onKeyDown={[Function]}
        size="1"
        type="number"
        value=""
      />
    </div>
  </div>
</div>
`;
